{
    "first_names": [
        "Emily",
        "John",
        "Mia",
        "Aiden",
        "Sophia",
        "Liam",
        "Olivia",
        "Noah",
        "Ava",
        "Ethan",
        "Sam",
        "Mike",
        "Chris",
        "Felix",
        "Barack",
        "Donald",
        "Ash"
    ],
    "last_names": [
        "Smith",
        "Johnson",
        "Williams",
        "Brown",
        "Jones",
        "Garcia",
        "Miller",
        "Davis",
        "Rodri",
        "Martin",
        "Litoris",
        "O'Nella",
        "Cox",
        "Kjellberg",
        "Obama",
        "Trump",
        "Ketchum"
    ]
}
